1 11 20
105 200 125
201 20 125
900 100 179
110 200 125
11 1 20
100 500 144
1 1 1
7000 8000 252
1 9999 262
1 520 144
368 368 20
1 2000 182
621575 84923 470
456321 785432 509
234567 123456 443
789543 98765 509
345678 234567 407
567890 12345 470
987654 23456 525
123456 456789 449
345678 98765 443
789543 987654 525
234567 12345 443
789543 98765 509
234567 345678 407
567890 123456 470
987654 23456 525
12345 789543 509
456321 987654 525
234567 23456 443
84923 98765 333
567890 456789 470
456321 12345 449
23456 98765 351
567890 84923 470
987654 84923 525
84923 12345 351
567890 234567 470
84923 23456 351
234567 84923 443
987654 12345 525
23456 123456 354
987654 234567 525
84923 234567 443
23456 12345 279
98765 84923 333
12345 98765 351
84923 567890 470
23456 987654 525
123456 345678 443
23456 12345 279
84923 12345 351
123456 23456 354
98765 23456 351
567890 987654 525
84923 987654 525
98765 234567 443
234567 987654 525
345678 987654 525
23456 98765 351
84923 456321 449
345678 12345 443
123456 234567 443
987654 12345 525
23456 345678 443
234567 84923 443
84923 23456 351
345678 98765 443
987654 345678 525
234567 345678 407
12345 234567 443
234567 98765 443
12345 345678 443
12345 23456 279
84923 345678 443
98765 123456 354
987654 234567 525
234567 123456 443
23456 123456 354
84923 567890 470
987654 123456 525
23456 234567 443
23456 234567 443
84923 98765 333
345678 23456 443
12345 234567 443
98765 84923 333
234567 84923 443
84923 345678 443
123456 987654 525
123456 345678 443
23456 987654 525
123456 98765 354
987654 23456 525
345678 123456 443
84923 234567 443
98765 345678 443
84923 987654 525
234567 12345 443
45 9485 262
