1 10 20
100 200 125
201 210 89
900 1000 174
2 20 21
100 9999 262
99 10 119
9999 10 262
99 1 119
80000 800 351
1 1 1
80000 90000 333
80000 100000 333
80000 110000 354
100000 10 351
20000 2000 279
2000 20 182
20 1 21
20 2 21
200 100 125
200 50 125
20000 150 279
200 60 125
2000 70 182
3 1 8
30000 2000 308
3000 20 217
30 1 112
30 2 112
300 100 128
300 50 128
30000 150 308
300 60 128
3000 70 217
4 1 8
40000 2000 324
4000 20 238
40 1 112
40 2 112
400 100 144
400 50 144
40000 150 324
400 60 144
4000 70 238
5 1 8
50000 2000 324
5000 20 238
50 1 112
50 2 112
500 100 144
500 50 144
50000 150 324
500 60 144
5000 70 238
6 1 9
60000 2000 340
6099 20 238
60 1 113
69 2 113
600 100 144
566 50 144
60009 150 340
609 60 144
6000 70 238
7 1 17
70000 2000 340
7000 20 262
70 1 113
70 2 113
700 100 145
700 50 145
70000 150 340
700 60 145
7000 70 262
8 1 17
80000 2000 351
8000 20 262
80 1 116
80 2 116
800 100 171
800 50 171
80000 150 351
800 60 171
8000 70 262
9 1 20
90000 2000 351
9000 20 262
90 1 116
90 2 116
900 100 179
900 50 179
90000 150 351
900 60 179
9000 70 262
10 1 20
100000 2000 351
10000 20 262
1000 1 179
1000 2 179
10000 100 262
10000 50 262
100000 150 351
10000 60 262
100000 70 351
69 120 119
60009 2000 340
6929 20 262
652 13 145
679 25 145
60283 1000 340
5690 501 238
60020 156 340
6060 609 238
6070 705 238
79 120 119
67009 2000 340
7529 20 262
722 13 171
719 25 171
70283 1000 340
7569 501 262
7020 156 262
76060 609 340
72070 705 340
779674 5 509
986533 76 525
999999 888888 507
999999 1 525
1 999999 525
675312 321 509
859935 80 525
832747 999999 525
719363 10000 509
5000 999999 525
768983 1900 509
6887 97389 351
736789 10 509
70 746192 509
10 100000 351
350 167458 383
80000 6590 351
13 17 18
1131 78 179
678 37 145
3 33333 308
