......................
----------------------------------------------------------------------
Ran 22 tests in 0.194s

OK
Name             Stmts   Miss Branch BrPart  Cover   Missing
------------------------------------------------------------
Collatz.py          36      0     14      0   100%
TestCollatz.py      95      0      0      0   100%
------------------------------------------------------------
TOTAL              131      0     14      0   100%
