1 10 20
100 200 125
201 210 89
900 1000 174
53828 66091 335
16405 23483 279
89889 51196 351
67545 18733 340
3099 34306 311
2832 63740 340
73276 86013 351
3694 94327 351
176 73872 340
84105 90614 333
33096 99877 351
41919 39726 306
20917 92914 351
51856 28597 324
10985 91001 351
25038 14077 282
31794 99418 351
12411 72285 340
51646 98190 351
98097 9411 351
24832 12175 282
40486 56051 340
43771 83172 351
38676 10954 324
23590 11078 282
3786 94596 351
47867 46723 314
78656 30188 351
14746 73581 340
95535 39034 351
22925 73112 340
22662 14688 279
82889 16065 351
58122 59152 273
15074 99949 351
26241 38448 324
18952 11239 279
47278 1752 324
62284 57 340
45212 23155 324
4416 34242 311
3181 17365 276
14675 17699 279
14653 44909 324
1800 27675 308
90994 57751 351
70740 75986 325
41277 35387 324
73786 59141 335
82531 39596 351
33086 8433 308
32937 15954 308
92033 46512 351
69085 8981 340
99587 29324 351
9257 40642 324
46384 77467 351
51495 95747 351
29793 80518 351
1898 97425 351
66769 52912 335
83958 73916 351
65576 56418 335
61208 52741 335
60982 2235 340
17952 27158 308
33121 50527 324
59310 98667 351
56697 91074 351
48149 79730 351
38387 48604 314
61681 37037 340
14002 60634 340
71980 35278 340
88690 29275 351
65520 76132 325
34133 82447 351
39904 54016 340
48906 18752 324
25117 82771 351
67609 91708 351
19642 68608 340
80789 40081 351
5758 52497 324
88430 44529 351
86324 77547 338
26948 21380 308
28446 76000 340
28403 85616 351
68582 53068 335
57554 62753 335
7477 3533 262
10990 60145 340
38625 17708 324
20283 30009 308
26215 31694 308
16913 48450 324
89156 95918 333
42110 35570 324
91977 29533 351
31525 25729 308
26843 36965 324
88547 66802 351
93327 52656 351
83369 47194 351
30176 22460 308
56340 79900 351
58247 29611 340
12650 55093 340
84653 68148 351
91583 64217 351
363 46823 324
59347 61818 335
87985 43980 351
79981 46539 351
67052 87788 351
8838 64490 340
40011 30125 324
86147 56874 351
19261 50414 324
24617 53071 340
90488 91436 315
33754 56208 340
85562 29543 351
75533 8111 340
67179 93381 351
13314 96234 351
92614 20821 351
51696 292 324
23795 9681 282
59100 75507 335
10697 73056 340
40744 97697 351
66352 50450 340
85005 62789 351
63567 30760 340
15588 98797 351
15490 78469 351
7748 34455 311
49533 51384 309
55905 43946 340
31614 78 308
96653 25142 351
80780 26714 351
12867 1584 268
56639 39661 340
18675 51658 324
26808 24153 308
10724 31412 308
3757 42164 324
